Worked Example: D-Rex
…
A density plots with various density estimate choices of the x variable.

The default density layer uses Silvermans rule-of-thumb (see ?bw.nrd0) for choosing bandwith but there are other choices that are probably better, such as bw = "SJ".

Multiple Distributions in One Plot

When you have several variables from the same dataset and thus related, it often makes good sense to juxtapose them in a plot in order to make it easier for the reader to compare the distributions. In the lecture, we did you by first pivoting our dataset into a long format in order to have one column that denotes the name of the variable and one column that contains those variables values. Lets do so here.

xy_long <- pivot_longer(xy, everything())

xy_long

## # A tibble: 284 x 2
##    name  value
##    <chr> <dbl>
##  1 x      55.4
##  2 y      97.2
##  3 x      51.5
##  4 y      96.0
##  5 x      46.2
##  6 y      94.5
##  7 x      42.8
##  8 y      91.4
##  9 x      40.8
## 10 y      88.3
## #  with 274 more rows
…
