Worked Example: Two Variables
…
Longitudinal Data

This data is longitudinal in nature so it seems reasonable to want to see how these measures vary across time. First, however, we need to convert the day and month variables into a single variable representing time. Here we use the handy make_date() function from the lubridate package.

library(lubridate)

airquality2 <-
  airquality %>%
  as_tibble() %>% # tibbles are nicer to work with than data frames
  mutate(Date = make_date("1973", Month, Day))

airquality2

## # A tibble: 153 x 7
##    Ozone Solar.R  Wind  Temp Month   Day Date      
##    <int>   <int> <dbl> <int> <int> <int> <date>    
##  1    41     190   7.4    67     5     1 1973-05-01
##  2    36     118   8      72     5     2 1973-05-02
##  3    12     149  12.6    74     5     3 1973-05-03
##  4    18     313  11.5    62     5     4 1973-05-04
##  5    NA      NA  14.3    56     5     5 1973-05-05
##  6    28      NA  14.9    66     5     6 1973-05-06
##  7    23     299   8.6    65     5     7 1973-05-07
##  8    19      99  13.8    59     5     8 1973-05-08
##  9     8      19  20.1    61     5     9 1973-05-09
## 10    NA     194   8.6    69     5    10 1973-05-10
## #  with 143 more rows
…
