Worked Example: Chile Plebiscite
…
Chile2

## # A tibble: 2,700 x 8
##    region population sex     age education      income statusquo vote     
##    <fct>       <int> <fct> <int> <ord>           <int>     <dbl> <fct>    
##  1 North      175000 Men      65 Primary         35000     1.01  Yes      
##  2 North      175000 Men      29 Post-Secondary   7500    -1.30  No       
##  3 North      175000 Women    38 Primary         15000     1.23  Yes      
##  4 North      175000 Women    49 Primary         35000    -1.03  No       
##  5 North      175000 Women    23 Secondary       35000    -1.10  No       
##  6 North      175000 Women    28 Primary          7500    -1.05  No       
##  7 North      175000 Men      26 Post-Secondary  35000    -0.786 No       
##  8 North      175000 Women    24 Secondary       15000    -1.11  No       
##  9 North      175000 Women    41 Primary         15000    -1.01  Undecided
## 10 North      175000 Men      41 Primary         15000    -1.30  No       
## #  with 2,690 more rows
…
